<svg xmlns="http://www.w3.org/2000/svg" width="140" height="105" viewBox="0 0 140 105">
    <defs>
        <style>
            .cls-4{fill:none}
        </style>
    </defs>
    <g id="btn-pic-l" transform="translate(-19 -126)">
        <g id="長方形_384" fill="#fff" stroke="#c7c7c7">
            <path stroke="none" d="M0 0H140V105H0z" transform="translate(19 126)"/>
            <path d="M0.5 0.5H139.5V104.5H0.5z" class="cls-4" transform="translate(19 126)"/>
        </g>
        <path id="icon-library" fill="#e6e6e6" d="M9.094 7.142h3.36v3.092c0 3.8 1.939 5.722 5.8 5.722h27.5c3.821 0 5.78-1.939 5.78-5.722V-9.084c0-3.783-1.959-5.722-5.78-5.722h-3.38v-2.919c0-3.8-1.959-5.722-5.78-5.722h-27.5c-3.86 0-5.8 1.92-5.8 5.722V1.42c.001 3.802 1.94 5.722 5.8 5.722zm.115-3.149a2.476 2.476 0 0 1-2.746-2.785v-18.722A2.476 2.476 0 0 1 9.209-20.3h27.267a2.484 2.484 0 0 1 2.746 2.784v2.708H18.253c-3.86 0-5.8 1.92-5.8 5.722V3.993zM15.6-8.873a2.476 2.476 0 0 1 2.746-2.784h27.29a2.484 2.484 0 0 1 2.746 2.784V6.239L41.719-.04a3.936 3.936 0 0 0-2.708-1.095A4.019 4.019 0 0 0 36.3-.059l-8.081 7.182L24.993 4.2a3.646 3.646 0 0 0-2.439-1.037 3.37 3.37 0 0 0-2.3 1.018L15.6 8.217zM25.378.46a4.307 4.307 0 0 0 4.262-4.283A4.32 4.32 0 0 0 25.378-8.1a4.307 4.307 0 0 0-4.263 4.282A4.294 4.294 0 0 0 25.378.46z" transform="translate(62.054 181.751)"/>
        <g id="btn-photo-add" transform="translate(128.502 201.397)">
            <path id="パス_399" fill="#464f69" d="M14.822 8.254A13.086 13.086 0 0 0 27.815-4.753a13.1 13.1 0 0 0-13.006-12.993A13.083 13.083 0 0 0 1.815-4.753 13.1 13.1 0 0 0 14.822 8.254zM14.8 1.563A1.144 1.144 0 0 1 13.642.276v-3.862H9.579c-.779 0-1.314-.414-1.314-1.14a1.153 1.153 0 0 1 1.314-1.18h4.063V-10a1.138 1.138 0 0 1 1.158-1.283A1.157 1.157 0 0 1 15.975-10v4.09h4.076a1.138 1.138 0 0 1 1.287 1.18 1.135 1.135 0 0 1-1.287 1.14h-4.076V.276A1.157 1.157 0 0 1 14.8 1.563z" transform="translate(.682 19.349)"/>
            <path id="長方形_385" d="M0 0H30V30H0z" class="cls-4" transform="translate(.498 -.396)"/>
        </g>
    </g>
</svg>
