<svg xmlns="http://www.w3.org/2000/svg" width="100" height="75" viewBox="0 0 100 75">
    <defs>
        <style>
            .cls-4{fill:none}
        </style>
    </defs>
    <g id="btn-pic" transform="translate(-19 -126)">
        <g id="長方形_384" fill="#fff" stroke="#c7c7c7">
            <path stroke="none" d="M0 0H100V75H0z" transform="translate(19 126)"/>
            <path d="M0.5 0.5H99.5V74.5H0.5z" class="cls-4" transform="translate(19 126)"/>
        </g>
        <path id="icon-library" fill="#e6e6e6" d="M7.424-1.668h2.392v2.2c0 2.707 1.381 4.074 4.129 4.074h19.578c2.721 0 4.115-1.381 4.115-4.074v-13.753c0-2.693-1.395-4.074-4.115-4.074h-2.406v-2.078c0-2.707-1.395-4.074-4.115-4.074H7.424c-2.748 0-4.129 1.367-4.129 4.074v13.631c0 2.707 1.381 4.074 4.129 4.074zm.082-2.242a1.763 1.763 0 0 1-1.955-1.983v-13.33a1.763 1.763 0 0 1 1.955-1.982H26.92a1.768 1.768 0 0 1 1.955 1.982v1.928h-14.93c-2.748 0-4.129 1.367-4.129 4.074v9.311zm4.553-9.16a1.763 1.763 0 0 1 1.955-1.982h19.427A1.768 1.768 0 0 1 35.4-13.07v10.76l-4.748-4.471a2.8 2.8 0 0 0-1.928-.779 2.861 2.861 0 0 0-1.928.766l-5.755 5.112-2.3-2.078a2.6 2.6 0 0 0-1.733-.74 2.4 2.4 0 0 0-1.641.725L12.059-.9zm6.959 6.645a3.067 3.067 0 0 0 3.035-3.049 3.076 3.076 0 0 0-3.035-3.049 3.067 3.067 0 0 0-3.035 3.049 3.058 3.058 0 0 0 3.035 3.048z" transform="translate(48.705 172.447)"/>
        <g id="btn-photo-add" transform="translate(2 32)">
            <path id="パス_399" fill="#464f69" d="M10.82.254a9.059 9.059 0 0 0 9-9 9.065 9.065 0 0 0-9-9 9.057 9.057 0 0 0-9 9 9.067 9.067 0 0 0 9 9zm-.02-4.632a.792.792 0 0 1-.8-.892v-2.673H7.19c-.538 0-.91-.288-.91-.789a.8.8 0 0 1 .91-.817H10v-2.831a.788.788 0 0 1 .8-.891.8.8 0 0 1 .817.891v2.831h2.823a.788.788 0 0 1 .891.817.786.786 0 0 1-.891.789h-2.822v2.673a.8.8 0 0 1-.818.892z" transform="translate(95.185 166.746)"/>
            <path id="長方形_385" d="M0 0H20V20H0z" class="cls-4" transform="translate(96 148)"/>
        </g>
    </g>
</svg>
